{
  "requestUrl": "/api/v3/staff/cabinet/executor/performer_change_drafts/",
  "contentType": "application/json",
  "statusCode": 200,
  "data": {"results":
  [{
        "performers": {
            "name": "Общество с ограниченной ответственностью Жилкомсервис №1 Приморского района»",
            "id": 450198
          },
        "problem": 143393,
        "reason": "Неудовлетворительное состояние асфальтового покрытия на придомовой и дворовой территориях",
        "category": "Благоустройство",
        "city_object": "Двор",
        "status": 3,
        "status_name": "Рассмотрение",
        "priority": 2,
        "is_controller": true,
        "expected_answer_dt": "2016-08-15T23:59:59",
        "assign_dt": "2016-08-13T11:36:29.326943",
        "last_petition_created_at": "2016-06-01T15:57:06.225",
        "is_coordinator": false,
        "is_performer": false,
        "organization_answer_status": null,
        "organization_performerchange_status": null,
        "last_executor_answer_status": "Черновик",
        "address": "г.Санкт-Петербург, улица Оптиков, дом 51, корпус 1"
      },
    {
      "performers": {
        "name": "ОАО «Коломяжское»",
        "id": 450198
      },
      "problem": 187801,
      "reason": "Пользование общим имуществом без разрешения собрания собственников помещений в МКД о передаче объектов общего имущества в пользование иным лицам",
      "category": "Нарушение правил пользования общим имуществом",
      "city_object": "Дом",
      "status": 1,
      "status_name": "Рассмотрение",
      "priority": 2,
      "is_controller": true,
      "expected_answer_dt": "2016-08-05T23:59:59",
      "assign_dt": "2016-07-15T11:36:29.326943",
      "last_petition_created_at": "2016-07-03T15:57:06.225",
      "is_coordinator": false,
      "is_performer": false,
      "organization_answer_status": null,
      "organization_performerchange_status": null,
      "last_executor_answer_status": "Черновик",
      "address": "г.Санкт-Петербург, улица Катерников, дом 5, корпус 1"
    }]
  }
}