{
  "requestUrl": "/api/v3/staff/menu/",
  "contentType": "application/json",
  "statusCode": 200,
  "data": {"menu":
  [{
      "url":"/api/v3/staff/executor/answer_preparing/my/",
      "indicator":5,
      "group":"Мои",
      "title":"Подготовить ответ"
    },{
      "url":"/api/v3/staff/executor/answer_preparing/organization/",
      "indicator":1,
      "group":"Нераспределенные",
      "title":"Подготовить ответ"
    },{
      "url":"/api/v3/staff/executor/answer_drafts/",
      "indicator":12,
      "group":"Черновики",
      "title":"Ответы"
    },{
      "url":"/api/v3/staff/executor/performer_change_drafts/",
      "indicator":9,
      "group":"Черновики",
      "title":"Запросы на смену"
    }]
  }
}